[
    {"num":1,"x":160,"y":530,"w":75,"h":75},
    {"num":2,"x":410,"y":525,"w":75,"h":75},
    {"num":3,"x":655,"y":530,"w":75,"h":75},
    {"num":4,"x":605,"y":320,"w":75,"h":75},
    {"num":5,"x":485,"y":140,"w":75,"h":75},
    {"num":6,"x":287,"y":185,"w":75,"h":75}
]